3.63238;1.00269
7.90954;0.974133
7.9162;0.975336
7.91197;0.974676
7.95954;1.18931
8.58833;1.09275
8.19513;1.02567
7.99567;0.973809
7.96177;0.976515
7.91764;0.976175
7.96292;0.992988
8.13868;0.978225
7.88759;0.97575
7.89296;0.975274
7.88549;0.976994
7.89038;1.04592
7.89185;0.976899
7.90664;0.976908
7.90122;0.977596
7.88497;0.974928
7.89951;0.978304
7.91171;0.97678
7.89762;0.97939
7.93215;0.9843
8.4322;1.39289
8.00309;1.21555
8.09663;0.977239
7.91931;0.979563
8.19773;1.31775
8.37684;1.03788
7.91728;1.0203
7.94193;1.06927
7.93757;1.28502
8.21635;1.36722
8.1339;1.22481
8.64998;0.97872
8.13906;0.989925
8.19671;1.01254
8.77303;1.08744
8.60931;1.00217
8.06986;1.02426
7.95291;1.24568
8.08818;1.18696
8.36317;1.16658
8.26962;1.2526
8.25342;1.18133
7.9488;1.07421
7.96685;1.14105
7.97672;1.21963
8.29428;0.978424
7.97576;0.981162
8.02328;1.11975
8.02676;1.01748
7.99226;1.07214
8.23607;1.10836
8.05229;1.00353
7.98653;0.980987
8.56324;0.989881
8.07894;1.13051
7.97023;0.978131
7.93141;0.97723
8.06315;1.07026
7.979;1.11651
8.34041;1.1173
8.31755;1.16834
7.88489;1.00909
7.87831;0.974805
7.91043;0.973773
7.90916;0.98282
8.07983;1.0785
8.14334;1.04225
7.9753;1.10323
8.14544;1.26202
7.99931;1.08026
7.92731;0.977958
8.30921;1.08343
7.97435;0.975837
8.30133;1.01412
9.12101;1.10316
8.54492;1.27193
8.08945;1.002
8.22498;1.15272
8.19505;0.993987
7.90645;0.998884
7.88129;0.987234
7.86811;0.976727
7.91544;0.992208
7.92758;1.05378
5.12046;1.03066
3.77981;1.21569
4.226;1.31391
4.16865;1.15014
4.24759;0.998832
3.57132;0.98578
3.729;0.987071
3.54805;0.955524
3.57725;0.992336
3.74328;0.95853
3.57541;0.966074
3.52037;1.00466
3.53668;0.94791
3.51962;0.948932
3.57593;1.00258
3.57674;1.12
3.74316;1.47836
4.04847;0.928024
3.63727;0.950049
3.57697;0.954146
3.52291;0.949405
3.54933;0.95147
3.54451;0.952108
3.53926;0.945944
3.51716;0.937822
3.53863;0.944271
3.51829;0.943419
3.52471;0.979805
3.77385;1.24718
3.6593;0.961655
3.65873;0.95984
3.8195;1.20563
4.68403;1.10069
3.79917;1.24993
4.29483;1.37798
4.09473;1.39294
3.9409;1.15183
3.76417;1.2957
3.75105;0.975856
3.57018;1.18297
3.94197;1.2329
4.0736;1.07327
4.31194;1.07474
3.98856;0.988548
3.76566;1.38054
4.12371;0.994018
3.60156;1.52386
5.10008;1.65683
4.8098;1.33584
3.77975;1.16027
3.71682;1.0533
3.90893;1.02963
3.94571;0.936626
3.62999;0.942329
3.77099;0.932575
3.64786;0.932986
3.64663;0.932619
3.63789;0.940071
3.61476;0.935405
3.61411;0.934842
3.6071;0.945863
3.61994;0.933955
3.60844;0.935112
3.60868;0.943398
3.61821;0.943955
3.62479;0.93504
3.62529;0.934846
3.60578;0.943265
3.6105;0.9364
3.676;1.02634
3.7642;0.945577
3.66102;1.10881
3.68335;0.923205
3.5907;0.923645
3.64419;0.926529
3.59145;0.923676
3.59275;0.92227
3.58959;0.92268
3.5918;0.922254
3.59391;0.921958
3.59407;0.923045
3.58401;0.922763
3.5899;0.922362
3.59369;0.921861
3.59543;0.923148
3.58408;0.922721
3.59773;0.922424
3.59549;0.922189
3.59378;0.922851
3.58343;0.922547
3.59712;0.922229
3.59027;0.922217
3.59166;0.923094
3.58191;0.923739
3.59088;0.922567
3.88384;1.05409
3.7106;0.981428
3.63577;0.944395
3.57545;0.962292
3.57345;0.957501
3.58802;1.07242
3.76116;1.12904
4.07115;0.989129
3.73013;0.935448
3.71846;1.02832
3.52191;0.938771
3.52072;0.938923
3.51821;0.953481
3.51846;0.953212
3.51788;0.936697
3.51897;0.940998
3.51789;0.939524
3.5188;0.955086
3.51638;0.953744
3.52016;0.938658
3.5204;0.939546
3.51794;0.955537
3.5166;0.952945
3.5195;0.950023
3.51883;0.940924
3.59539;1.18101
3.51952;0.947021
3.54337;1.00614
3.52128;0.937387
3.54535;0.945876
3.52616;0.951779
3.51782;0.93747
3.51685;0.938577
3.51916;1.14972
3.51723;0.945037
3.51537;0.945491
3.52008;1.16834
3.62617;0.962291
3.59964;0.950391
3.57299;0.994358
3.58261;0.961704
3.5722;0.932972
3.57436;0.923921
3.5759;0.924249
3.57415;0.933824
3.65589;0.924851
3.59355;0.946986
3.69203;0.992846
3.57436;0.929985
3.61735;0.961437
3.58268;0.947102
3.59106;1.08642
3.60141;0.953546
3.58554;0.945378
3.5741;0.960892
3.59974;1.2734
3.60978;1.01522
3.56496;1.10402
3.55156;0.937781
3.55672;0.974778
3.62989;0.944322
3.55445;1.22449
3.56051;0.949418
3.59751;0.986509
3.53107;1.00515
3.58974;0.942971
3.52057;1.10592
3.525;0.947468
3.5153;0.956041
3.56449;0.939118
3.54079;0.936232
3.5984;0.948964
3.5206;0.948069
3.63339;1.15725
4.01;1.06149
3.60068;0.938464
3.65102;1.05961
3.5944;0.937228
3.57984;0.936578
3.57966;0.935707
3.59036;0.937346
3.65452;0.938226
3.55425;0.938418
3.55872;0.940724
3.56575;1.08512
3.81588;0.935129
3.90362;0.936907
3.6406;1.01555
3.546;0.935004
3.56389;0.935227
3.68253;1.11193
3.70266;0.965373
3.63191;0.934291
3.58849;0.939213
3.7467;1.06092
3.70745;0.943894
3.86092;0.973456
4.12792;1.08509
3.81553;1.05885
3.60971;1.07423
3.70039;0.990974
4.09345;1.05464
3.74508;0.986915
3.54344;1.25238
3.53635;1.12154
3.93397;0.951133
3.60903;0.939916
3.57975;1.00498
3.77986;0.993876
3.52297;1.1336
3.72688;0.933989
3.57512;0.942087
3.69044;1.25883
3.65642;1.47249
3.64619;0.945636
3.62823;1.04713
3.60699;0.94219
3.59023;1.09733
3.74646;0.954928
3.64957;0.982066
3.59039;0.956902
3.58811;0.98617
3.59204;0.936842
3.59845;0.990444
3.62648;0.954464
3.60242;0.995072
3.59006;0.941217
3.62105;1.03246
3.57891;0.935967
3.57969;0.935442
3.58315;0.934633
3.57951;0.934711
3.57816;0.97198
3.70992;1.11091
3.80709;0.960796
3.73319;1.20381
3.62557;0.946356
3.6448;0.952722
3.6585;1.17833
3.58592;1.13878
3.65078;1.02592
3.71276;0.949826
3.55765;1.00895
3.52585;0.968715
3.539;0.933602
3.51793;0.933507
3.51731;0.933755
3.51554;0.934078
3.54886;0.943348
3.56559;1.02507
3.59695;1.05893
3.56164;1.05616
3.54389;0.937579
3.55521;0.954324
3.51792;0.956572
3.51887;0.944197
3.54482;1.01789
3.57208;1.07028
3.52665;0.932826
3.52074;0.975032
3.51878;0.932549
3.51861;0.932709
3.53919;0.96966
3.53805;0.93393
3.51635;0.933245
3.51942;0.933291
3.52195;0.934147
3.51801;0.934091
3.53184;0.936776
3.67471;1.09216
3.56544;0.962737
3.54165;0.941693
3.51626;0.93134
3.52982;0.95134
3.52309;0.943416
3.52631;1.13094
3.51582;0.967911
3.52502;0.942327
3.60645;0.93713
3.51506;0.936232
3.51407;0.938294
3.51394;0.946528
3.51203;0.955629
3.51303;0.94209
3.51293;0.941558
3.51301;0.942281
3.51345;0.951692
3.5119;0.949849
3.51602;0.94067
3.51336;0.94165
3.51499;0.951048
3.51594;0.949906
3.51335;0.943635
3.54136;0.95638
3.51776;0.950396
3.51522;0.957306
3.60258;1.04861
3.62104;0.937744
3.74094;0.939964
3.5596;0.934084
3.73232;1.33572
4.18515;1.1731
3.64267;1.11081
3.65285;0.935183
3.72477;1.23561
3.84175;0.981328
3.65379;1.03662
4.20322;1.05133
3.6476;0.937814
3.57221;0.939237
3.59598;1.10382
3.5349;1.1801
3.61499;0.963773
3.66961;0.949471
3.61578;1.00789
3.64344;0.94364
3.60388;0.988072
3.66244;0.938309
3.56362;0.940912
3.88165;0.966425
3.59816;1.00651
3.84495;0.940128
3.60581;0.985556
3.86743;0.93619
3.60867;0.945927
3.55307;0.947264
3.55489;0.956845
3.55641;0.946616
3.55463;0.947122
3.54937;0.954549
3.55324;0.95418
3.57019;0.942787
3.58025;1.08068
4.01869;1.04968
3.90878;1.02889
3.60615;0.987363
3.6909;0.986215
3.61357;0.974974
3.85245;1.1272
3.92037;1.00448
3.59581;0.93542
3.61009;0.936698
3.6636;1.02977
3.60523;0.935957
3.95251;1.09018
3.7071;0.949893
3.55784;0.996227
3.5758;0.956149
3.56655;1.06926
4.42477;1.13166
4.18153;0.955667
3.93601;1.11187
3.76277;1.06735
3.97591;1.12266
3.69096;1.20129
3.83538;1.23714
3.7934;1.19335
3.74434;1.22066
3.91052;1.05955
4.03023;1.10542
3.77849;0.954077
3.81948;0.946875
3.64964;1.00957
3.62029;0.936975
3.5829;0.985383
3.59818;0.992002
3.58751;0.947481
3.58337;0.99325
3.58173;0.997493
3.58187;0.976639
3.62716;0.937958
3.57381;0.938701
3.59035;0.962893
3.57842;0.938413
3.57626;0.938259
3.57649;0.942202
3.57131;0.939444
3.57381;0.964025
3.58337;0.988631
3.58273;0.959043
3.58446;0.938476
3.57477;0.93863
3.5787;0.939385
3.59447;0.938867
3.58466;0.93857
3.57599;0.93863
3.61427;0.939189
3.57193;0.944284
3.71917;0.943314
3.6809;0.983204
3.63658;0.985857
3.57587;1.11906
3.61837;0.940278
3.52343;0.9342
3.624;1.00668
3.57408;0.965303
3.76705;1.27463
3.54881;0.946714
3.55709;0.946934
3.66745;1.1173
3.6839;1.14593
3.57044;1.05995
3.6384;0.945411
3.61405;0.937089
3.57343;0.934401
3.58793;0.951353
3.59087;1.02042
3.59488;0.927046
3.5894;0.940841
3.57657;0.953357
3.6274;0.926102
3.57203;1.08414
3.69668;0.939696
3.56605;1.31217
3.59811;0.965159
3.61524;1.13691
3.95263;1.06966
3.56459;0.937322
3.54749;1.10063
3.60835;1.19296
3.60194;1.03282
3.55676;1.03735
3.56703;0.985674
3.52855;0.941353
3.52973;0.979688
3.51554;0.977177
3.53542;0.957617
3.56388;0.934642
3.53625;0.937369
3.52525;0.938115
3.52834;0.934184
3.52391;0.934939
3.52632;0.973909
3.53463;0.944668
3.53123;0.935208
3.53023;0.935029
3.57502;1.07748
3.55098;0.990376
3.58658;1.04288
3.53414;1.28202
3.56757;0.940139
3.51771;0.939702
3.51745;0.958111
3.5608;1.04068
3.58916;0.939148
3.56829;1.23395
3.58346;0.952339
3.62019;1.05668
3.55773;1.30495
3.87761;0.949967
3.65451;0.935575
3.6512;0.954557
3.63024;1.11762
3.61422;1.13858
3.61368;0.934068
3.59844;0.953986
3.57598;0.931813
3.65641;0.977101
3.64661;1.2014
3.87215;0.93879
3.8045;1.1596
3.82558;0.941497
3.59673;0.942802
3.5909;0.960658
3.57314;0.940918
3.59882;1.16057
3.80567;0.940902
3.51528;0.938615
3.51722;1.08402
3.51836;0.935667
3.51361;0.947236
3.55534;0.945103
3.52051;0.955232
3.52528;0.943582
3.62288;0.9891
3.53107;0.966622
3.518;0.969229
3.52336;1.00064
3.5459;1.10857
3.52347;0.955255
3.51325;0.938867
3.51279;0.938805
3.51271;0.939523
3.51295;0.957155
3.52607;0.941843
3.58143;0.935407
3.51126;0.942369
3.51498;0.944207
3.5144;0.934705
3.53447;0.941465
3.51624;0.964596
3.521;0.95563
3.51906;0.941459
3.57936;1.06201
3.89005;0.95096
4.03946;1.063
3.7455;1.02004
3.77906;1.01055
3.6346;1.07156
3.8447;1.08805
3.63812;1.08147
3.64853;0.93793
3.71498;1.29302
3.75976;1.08572
3.61284;1.10667
3.54983;0.950654
3.53972;1.09682
3.53038;0.983595
3.51544;1.00397
3.57475;0.976488
3.57774;0.9945
3.59828;1.00345
3.52195;1.02395
3.54109;1.00552
3.51308;0.939343
3.56265;0.937652
3.51428;0.936485
3.53372;1.08963
3.60254;0.944048
3.57985;0.937605
3.56584;0.936986
3.56606;0.936936
3.56435;0.937775
3.56489;0.937198
3.56428;0.937001
3.56444;0.937065
3.56516;1.04205
3.56947;0.936619
3.56679;0.936765
3.56679;0.938953
3.56658;0.936933
3.56487;0.936614
3.56485;0.938099
3.56439;0.939074
3.5643;0.937513
3.56427;0.937261
3.56607;0.936598
3.56404;0.937681
3.56297;0.936887
3.56726;0.949876
3.56451;0.990701
3.58914;0.936925
3.56432;0.937628
3.56642;0.935916
3.5664;1.0247
3.58623;1.03976
3.63723;0.935609
3.62544;0.930751
3.5646;1.085
3.58817;0.938743
3.56149;0.935718
3.57558;0.936056
3.5637;0.935882
3.569;0.936406
3.58703;0.938145
3.56159;0.981893
3.6548;1.06886
3.71445;0.950409
3.80399;0.963199
3.58473;1.0044
3.64515;1.08519
3.60863;0.938929
3.70901;1.0719
3.61873;0.937864
3.62357;0.93653
3.64902;1.06207
3.59269;0.995103
4.06507;1.01885
3.64192;0.950563
3.57919;1.07357
3.88902;0.95618
3.93301;1.0319
3.56607;1.02114
3.78515;0.971869
3.76352;1.02112
3.52748;0.940946
3.5119;0.937744
3.51463;0.946797
3.57081;0.94514
3.60751;0.946163
3.61635;1.06675
3.7827;1.0312
3.66413;1.02889
3.66064;1.11781
3.61701;0.961695
3.56081;1.11708
3.76733;1.00052
3.67722;1.23594
3.95129;1.01399
3.87039;1.00008
3.69319;1.14172
3.61177;1.11942
3.7555;0.935565
3.60465;0.934865
3.61356;0.938454
3.90698;1.21695
3.56244;1.02784
3.86193;0.964721
3.64785;1.01525
3.56083;1.00451
3.57792;0.946705
3.66;0.942158
3.51373;0.93441
3.51091;0.965042
3.54149;0.936514
3.57995;1.03567
3.59572;0.994498
3.51257;1.04437
3.52799;0.945902
3.51665;0.94785
3.51099;0.964818
3.51567;0.935592
3.74284;1.14658
3.92251;0.940071
3.74059;0.932203
3.73123;1.09299
3.87132;0.944486
3.60505;0.935725
3.62013;0.954425
3.73991;1.10818
3.64088;0.951865
4.02794;1.06739
4.08111;1.02977
3.61515;0.935069
3.80043;1.10237
3.83168;1.04321
3.61666;0.999459
3.83844;1.14231
3.6813;1.00756
3.57352;0.946989
3.58377;0.949247
3.62912;0.934572
3.70531;0.934491
3.72841;0.935206
3.57067;0.9485
3.8936;0.93347
3.55324;0.933687
3.76676;0.930703
3.61994;1.07349
3.85025;0.993912
3.89968;0.942064
3.76357;1.14101
4.13755;0.944114
4.19743;1.07157
3.64733;0.934458
4.7179;1.32029
5.42676;1.72131
4.70624;1.41178
4.1842;1.40435
4.06856;1.49398
4.18612;1.32148
4.01285;1.34677
6.35122;1.31237
4.62278;1.44031
4.03461;1.611
4.18709;0.919755
3.57942;0.920385
3.5779;0.919874
3.59042;0.919439
3.57978;0.920893
3.57942;0.920689
3.5773;0.919881
3.58459;0.920214
3.57744;0.920475
3.57771;0.920753
3.58314;0.920029
3.5865;0.919596
3.57864;0.921122
3.57886;0.920386
3.57738;0.924039
3.5821;0.920149
3.58301;0.92073
3.57928;0.920316
3.57928;0.920301
3.5787;0.920336
3.5787;0.920408
3.58232;0.919965
3.58026;0.919758
3.58573;0.920484
3.58116;0.920615
3.68836;0.970726
3.74634;0.944267
3.59036;0.936766
3.57922;0.936356
3.58922;1.00715
4.00653;1.05682
3.83034;0.979198
3.55412;1.04032
3.59322;1.05103
3.66045;0.936148
3.61292;0.939991
3.65622;0.978696
3.76984;1.04543
3.56635;0.938593
3.51173;0.947307
3.52272;0.945911
3.5625;1.0022
3.51856;0.946042
3.51774;0.954314
3.51843;0.956469
3.51473;0.939741
3.51282;0.947721
3.51311;0.9517
3.76725;1.04968
3.92101;0.934048
3.68623;0.944613
3.52809;0.950479
3.51147;0.934401
3.51034;0.934616
3.5361;1.09366
3.77283;1.04809
3.68422;0.956215
3.55011;0.943647
3.78643;0.933408
3.57149;0.940703
3.55514;0.988832
3.94773;1.22009
3.70967;0.948619
3.62206;0.945658
3.59939;0.958402
3.61111;0.947987
3.56835;0.942078
3.56265;0.940652
3.57041;0.939376
3.57145;0.94019
3.58117;1.00703
3.67406;0.966494
3.65293;1.10628
3.75752;1.03362
3.94669;1.13917
3.57482;0.936495
3.53926;0.944639
3.51514;0.935337
3.51534;0.935299
3.51443;0.943443
3.5125;0.943995
3.51241;0.935491
3.51254;0.9361
3.51398;0.936145
3.51297;0.941624
3.51164;0.943076
3.51464;0.936201
3.51314;0.936436
3.5138;0.944356
3.51318;0.942877
3.51386;0.935966
3.5157;0.936141
3.51639;0.944242
3.51547;0.943608
3.51849;0.936072
3.51648;0.936242
3.51887;0.938709
3.51773;0.936264
3.58299;0.932319
3.59136;0.931803
3.58896;0.931993
3.58988;0.932655
3.59587;0.932284
3.59099;0.93229
3.59167;0.933103
3.58332;0.933696
3.58995;0.932567
3.59053;0.932789
3.58801;0.93344
3.58314;0.93337
3.59833;0.932403
3.59082;0.932224
3.59499;0.932734
3.58308;0.932808
3.59157;0.931756
3.59195;0.931851
3.5884;0.932689
3.59083;0.931837
3.59043;0.931989
3.59175;0.933343
3.58484;0.932612
3.5914;0.931787
3.59038;0.931905
3.59394;0.932562
3.58562;0.931415
3.58967;0.931287
3.59172;0.931281
3.59079;0.932592
3.69142;1.10285
3.59246;0.922469
3.60739;0.929899
3.59703;0.921969
3.60948;0.922094
3.60647;0.923072
3.60219;0.924335
3.59763;0.923564
3.60555;0.922856
3.60539;0.922222
3.6001;0.921833
3.5966;0.921987
3.59986;0.922302
3.60454;0.922327
3.59297;0.924266
3.58772;0.923597
3.59132;0.924546
3.59017;0.92422
3.58981;0.924115
3.59044;0.923031
3.58867;0.924242
3.58936;0.925702
3.5814;0.925787
3.95842;1.06125
3.84598;0.976753
3.64495;1.02881
3.58108;0.928991
3.70323;1.13932
4.19951;1.00001
4.01665;1.29741
3.72;1.01194
3.62605;0.973218
3.62632;1.06735
3.64734;1.0398
3.608;0.944289
3.5987;0.956459
3.61411;0.956053
3.91485;1.14229
3.89039;0.920238
3.70538;1.18159
3.87049;0.95281
3.62043;1.16086
3.67249;1.27633
3.67193;0.979423
3.62438;0.923845
3.77633;0.963293
3.67594;0.945271
3.70738;0.944227
3.73285;0.935742
3.62019;0.934735
3.54805;0.935166
4.32476;1.05461
3.64225;0.989437
3.80046;0.933353
3.63103;0.993791
3.61022;1.08575
3.69781;1.02081
3.58621;0.975825
3.53065;1.107
3.58033;1.19882
3.52938;1.06827
3.52542;0.938824
3.57656;1.18432
3.57504;0.934357
3.58855;1.09081
3.62839;0.971041
3.6421;0.947227
3.81937;0.954399
3.86877;0.976137
3.59851;1.18968
3.83101;0.953439
3.74694;1.22243
3.71682;1.23416
3.86625;1.1689
3.67508;1.01742
3.611;1.02218
3.57575;0.936764
3.53257;0.934166
3.5224;0.934906
3.53814;1.18487
3.83543;1.06274
3.58216;0.924794
3.57252;0.934308
3.59713;1.03969
3.86496;0.928927
3.58313;0.939663
3.65451;0.956469
3.53803;0.948618
3.53769;0.936757
3.52754;0.937418
3.52107;0.937204
3.52571;0.933504
3.62156;0.99332
3.67245;1.0856
3.5954;0.937119
3.61139;0.940039
3.58774;1.13711
3.65475;0.953002
3.61845;1.29977
3.71425;1.03972
3.66298;0.931616
3.8781;1.20224
3.70693;1.17743
3.95585;0.940794
3.61586;1.05546
3.63035;0.930385
3.59981;0.949276
3.62092;0.936035
3.59968;0.940123
3.5831;1.12031
3.73223;0.936679
3.70516;1.05467
3.62284;0.968938
3.5944;0.96978
3.58086;0.960728
3.61141;0.942319
3.59933;1.04189
3.58642;0.981363
3.64817;0.960075
3.74217;0.976218
3.87322;0.961768
3.74204;0.937547
3.83263;1.10795
3.88545;0.932133
3.61014;0.932246
3.5816;0.932601
3.58303;0.93135
3.58238;1.01997
3.68192;1.32565
3.70903;1.00033
3.72891;0.951988
3.60255;0.932459
3.5799;0.931875
3.67832;1.04917
