\relax 
\@writefile{toc}{\contentsline {section}{1 Parallelization of Elastic Measures with OpenMP (12P)}{3}}
\newlabel{"Task 1/Code/Task1Problem.c"}{{}{3}}
\@writefile{lol}{\contentsline {lstlisting}{"Task 1/Code/Task1Problem.c"}{3}}
\@writefile{toc}{\contentsline {subsection}{(i) Visualize the data dependencies of both methods with the help of directed graphs. To achieve that, draw an exemplary matrix for M=N=6 and sketch the dependencies between the cells with arrows.}{4}}
\@writefile{toc}{\contentsline {subsection}{(ii) Can you find an appropriate parallelization scheme for both provided methods? Which cells can be relaxed (updated) simultaneously?}{6}}
\@writefile{toc}{\contentsline {subsection}{(iii) Implement an efficiently parallelized version of \texttt  {relax\_A} using proper OpenMP pragmas. Also parallelize the initialization method \texttt  {init\_matrix}.}{7}}
\newlabel{"Task 1/Code/Task1Solution.c"}{{}{7}}
\@writefile{lol}{\contentsline {lstlisting}{"Task 1/Code/Task1Solution.c"}{7}}
\@writefile{toc}{\contentsline {subsection}{(iv) This task is optional: Implement a parallel version of \texttt  {relax\_B} using OpenMP.}{14}}
\@writefile{toc}{\contentsline {section}{2 Task Parallelism in OpenMP (8P)}{15}}
\newlabel{"Task 2/Code/task2.c"}{{}{15}}
\@writefile{lol}{\contentsline {lstlisting}{"Task 2/Code/task2.c"}{15}}
\@writefile{toc}{\contentsline {subsection}{(i) Study the slides dealing with task parallelism in OpenMP.}{15}}
\@writefile{toc}{\contentsline {subsection}{(ii) Implement a parallel version of \texttt  {tree\_bfs} using OpenMP's for-pragmas by explicity enumerating the state space.}{16}}
\newlabel{"Task 2/Code/Task2_2Solution.c"}{{}{16}}
\@writefile{lol}{\contentsline {lstlisting}{"Task 2/Code/Task2\textunderscore 2Solution.c"}{16}}
\@writefile{toc}{\contentsline {subsection}{(iii) Parallelize the method \texttt  {tree\_bfs} using OpenMP's task mechanism. Do we need explicit synchronization barriers?}{18}}
\newlabel{"Task 2/Code/Task2_2Solution.c"}{{}{18}}
\@writefile{lol}{\contentsline {lstlisting}{"Task 2/Code/Task2\textunderscore 2Solution.c"}{18}}
\newlabel{LastPage}{{}{21}}
\xdef\lastpage@lastpage{21}
\gdef\lastpage@lastpageHy{}
