\relax 
\@writefile{toc}{\contentsline {section}{1 Parallelize Sorting with OpenMP (10P)}{3}}
\newlabel{"Task 1/task1.c"}{{}{3}}
\@writefile{lol}{\contentsline {lstlisting}{"Task 1/task1.c"}{3}}
\@writefile{toc}{\contentsline {subsection}{(i) Explain how this algorithm works.}{3}}
\@writefile{toc}{\contentsline {subsection}{(ii) Analyse the data dependencies of each loop. Which loop is ideally suited for a parallelization with OpenMP pragmas? Consider the problem of shared variables.}{3}}
\@writefile{toc}{\contentsline {subsection}{(iii) Implement a parallel version of \texttt  {sequential\_sort} according to your former considerations. Discuss speedup and efficiency.}{4}}
\newlabel{"Task 1/Code/solution1.c"}{{}{4}}
\@writefile{lol}{\contentsline {lstlisting}{"Task 1/Code/solution1.c"}{4}}
\@writefile{toc}{\contentsline {section}{2 Scheduling Loops with OpenMP (10P)}{9}}
\newlabel{"Task 2/task2.c"}{{}{9}}
\@writefile{lol}{\contentsline {lstlisting}{"Task 2/task2.c"}{9}}
\@writefile{toc}{\contentsline {subsection}{(i) Parallelize this loop using OpenMP. Are there any data dependencies or shared variables?}{9}}
\newlabel{"Task 2/solution2.c"}{{}{9}}
\@writefile{lol}{\contentsline {lstlisting}{"Task 2/solution2.c"}{9}}
\@writefile{toc}{\contentsline {subsection}{(ii) Talk about the load balancing of the individual threads. You can assume \texttt  {NUM\_THREADS = 6}.}{11}}
\@writefile{toc}{\contentsline {subsection}{(iii) Discuss different scheduling modes and the corresponding runtimes.}{12}}
\newlabel{LastPage}{{}{16}}
\xdef\lastpage@lastpage{16}
\gdef\lastpage@lastpageHy{}
