\contentsline {section}{1 The Xeon Phi Coprocessor (20P)}{3}
\contentsline {subsection}{1. Describe the key architectural features of Xeon Phi coprocessors. Does Xeon Phi have any characteristics in common with a multi-core CPU?}{3}
\contentsline {subsection}{2. To maximize the performance of a parallel program, we sometimes need to determine whether to run the program on multi-core CPUs (Xeon processors) or Xeon Phi coprocessors. This is because one processor core of a coprocessor has lower compute power than one core of a CPU, and higher performance can be expected only if we use multiple cores or vectorized computation on the coprocessor. On the other hand, the performance also highly depends on the intrinsic parallelism within the program. Explain what fundamental considerations we should keep in mind when choosing which processing units to use.}{3}
\contentsline {subsection}{3. As we know, effective use of caches can usually lead to higher performance on CPUs. So does it on coprocessors. Explain what aspects programmers should pay more attention to in order to effectively use the caching mechanism on the coprocessor?}{4}
\contentsline {subsection}{4. Could you explain any differences between the hyper-threading on the coprocessor from the hyper-threading on any Intel multi-core CPU? How does this hyper-threading possibly affect the performance of a parallel program on the coprocessor?}{4}
\contentsline {subsection}{5. Explain the possibility of porting a MPI-based program onto a network of coprocessors and propose possible solutions if applicable.}{5}
