\relax 
\@writefile{toc}{\contentsline {section}{1 Compare-and-Swap Loops (6P)}{3}}
\newlabel{"Task 1/Code/task1.cpp"}{{}{3}}
\@writefile{lol}{\contentsline {lstlisting}{"Task 1/Code/task1.cpp"}{3}}
\@writefile{toc}{\contentsline {subsection}{(i) Explain why and where the error during the update of \texttt  {global\_max} occurs.}{3}}
\@writefile{toc}{\contentsline {subsection}{(ii) How would you resolve that problem using a mutex?}{3}}
\@writefile{toc}{\contentsline {subsection}{(iii) Find an appropiate source explaining CAS-loops and the command \texttt  {compare\_exchange\_weak}. Afterwards, implement a lock-free version of the stated code that produces the correct result.}{4}}
\newlabel{"Task 1/Code/swap.cpp"}{{}{4}}
\@writefile{lol}{\contentsline {lstlisting}{"Task 1/Code/swap.cpp"}{4}}
\@writefile{toc}{\contentsline {section}{2 Solving the Knapsack Problem using a Static Schedule (14P)}{5}}
\@writefile{toc}{\contentsline {subsection}{(i) Write a lock-free variant of the \texttt  {update} method using a CAS-loop. If you cannot achieve this, keep the provided code. It will almost always produce the correct result.}{5}}
\newlabel{"Task 2/Code/swap.cpp"}{{}{5}}
\@writefile{lol}{\contentsline {lstlisting}{"Task 2/Code/swap.cpp"}{5}}
\@writefile{toc}{\contentsline {subsection}{(ii) Implement the recursive \texttt  {traverse} method. Prune unpromising candidates with the provided \texttt  {upper\_bound} function. The result must be the same wether you use the upper bound or not.}{5}}
\newlabel{"Task 2/Code/traverse.cpp"}{{}{5}}
\@writefile{lol}{\contentsline {lstlisting}{"Task 2/Code/traverse.cpp"}{5}}
\@writefile{toc}{\contentsline {subsection}{(iii) Benchmark the \texttt  {sequential\_solve} (1 thread) and \texttt  {parallel\_solve} (2 threads) methods. Using local upper bounds one obtains super-linear speedup. How can that be explained?}{6}}
\@writefile{toc}{\contentsline {subsection}{(iv) Implement the method \texttt  {parallel\_solve\_h} whch utilizes $2^h$ threads. To achieve that, one has to find an appropriate entry level in the tree. Moreover, one has to precompute the corresponding arguments of \texttt  {traverse} to ensure correct results. Hint: binary decomposition.}{8}}
\newlabel{"Task 2/Code/parallel_h.cpp"}{{}{8}}
\@writefile{lol}{\contentsline {lstlisting}{"Task 2/Code/parallel\textunderscore h.cpp"}{8}}
\@writefile{toc}{\contentsline {subsection}{(v) Although the provided machine has only six physical cores (here we use 4 since Sauce gives Time-outs), the optimal speedup can be reached for the choice $h \approx 8 i.e. 2^8 = 256 $threads. Explain this counter-intuitive observation. How can this be possible although the majority of threads is not being executed simultaneously.}{9}}
\newlabel{LastPage}{{}{9}}
\xdef\lastpage@lastpage{9}
\gdef\lastpage@lastpageHy{}
