\relax 
\@writefile{toc}{\contentsline {section}{1 Parallel Cloth Simulation using Position-Based Dynamics (20P)}{3}}
\newlabel{"Code/Task1Problem.cpp"}{{}{3}}
\@writefile{lol}{\contentsline {lstlisting}{"Code/Task1Problem.cpp"}{3}}
\@writefile{toc}{\contentsline {subsection}{(i) Thoroughly read the provided SAUCE template. Explain each of the three methods \texttt  {update\_positions}, \texttt  {relax\_constraint} and \texttt  {adjust\_positions}. What is happening there in detail?}{3}}
\@writefile{toc}{\contentsline {subsection}{(ii) Discuss the potential for the parallelization considering the techniques MPI, Posix Threads, OpenMP and AVX. Design a strategy for the computation of a massive rag simulation on a cluster of multi-core CPUs providing support for Intel's advanced vector extensions (AVX).}{4}}
\@writefile{toc}{\contentsline {subsection}{(iii) Consider a small scale variant of your proposed implementation where N = 100. Use two of the above mentioned techniques to parallelize the given sequential code (implementation!). Discuss speedup and efficiency.}{5}}
\newlabel{"Code/Task1Solution.cpp"}{{}{5}}
\@writefile{lol}{\contentsline {lstlisting}{"Code/Task1Solution.cpp"}{5}}
\newlabel{LastPage}{{}{15}}
\xdef\lastpage@lastpage{15}
\gdef\lastpage@lastpageHy{}
