\relax 
\@writefile{toc}{\contentsline {section}{1 Mutexes versus Atomics (6P)}{3}}
\@writefile{toc}{\contentsline {subsection}{(i) Explain why the function \texttt  {false\_inc} almost always produces the wrong result.}{3}}
\@writefile{toc}{\contentsline {subsection}{(ii) Write a function \texttt  {mutex\_inc} using a C++11 mutex that calculates the correct result. To achieve that, extend the provided SAUCE template.}{3}}
\newlabel{"Task 1/Code/incr.cpp"}{{}{3}}
\@writefile{lol}{\contentsline {lstlisting}{"Task 1/Code/incr.cpp"}{3}}
\@writefile{toc}{\contentsline {subsection}{(iii) The C++11 specification provides so-called atomics for integral data types. Alter the code using an atomic sum-variable such that \texttt  {false\_inc} produces the correct result.}{4}}
\@writefile{toc}{\contentsline {subsection}{(iv) Discuss the execution speed of all three variants.}{4}}
\@writefile{lot}{\contentsline {table}{\numberline {1}{\ignorespaces Intel i7}}{5}}
\@writefile{lot}{\contentsline {table}{\numberline {2}{\ignorespaces Intel i5}}{5}}
\@writefile{lot}{\contentsline {table}{\numberline {3}{\ignorespaces AMD E1}}{5}}
\@writefile{toc}{\contentsline {section}{2 Simulating Join with Condition Variables (6P)}{9}}
\newlabel{"Task 2/Code/join.cpp"}{{}{9}}
\@writefile{lol}{\contentsline {lstlisting}{"Task 2/Code/join.cpp"}{9}}
\@writefile{toc}{\contentsline {section}{3 Playing Ping Pong with Condition Variables (8P)}{10}}
\newlabel{"Task 3/Code/ping_pong_tass.cpp"}{{}{10}}
\@writefile{lol}{\contentsline {lstlisting}{"Task 3/Code/ping\textunderscore pong\textunderscore tass.cpp"}{10}}
\newlabel{LastPage}{{}{10}}
\xdef\lastpage@lastpage{10}
\gdef\lastpage@lastpageHy{}
