\relax 
\@writefile{toc}{\contentsline {section}{1 Speedup in Relation to Optimal Sequential Code (2P)}{3}}
\@writefile{toc}{\contentsline {section}{2 Deadlocks in MPI (6P)}{3}}
\newlabel{"Code/problem2.cpp"}{{}{3}}
\@writefile{lol}{\contentsline {lstlisting}{"Code/problem2.cpp"}{3}}
\@writefile{toc}{\contentsline {subsection}{Does the code have the potential to cause a deadlock?}{3}}
\@writefile{toc}{\contentsline {subsection}{A solution to avoid the deadlock.}{3}}
\@writefile{toc}{\contentsline {section}{3 Matrix Multiplication using Submatrix Scattering (12P)}{4}}
\@writefile{toc}{\contentsline {subsection}{(i) A sketch of the partitioning scheme of S for N=10 and a calculation of the position of all entries in A, B, C and D.}{4}}
\newlabel{"Code/calcSubMatrix.cpp"}{{}{4}}
\@writefile{lol}{\contentsline {lstlisting}{"Code/calcSubMatrix.cpp"}{4}}
\@writefile{toc}{\contentsline {subsection}{(ii) Explanation for the BLOCK data type.}{4}}
\newlabel{"Code/problem3.cpp"}{{}{4}}
\@writefile{lol}{\contentsline {lstlisting}{"Code/problem3.cpp"}{4}}
\@writefile{toc}{\contentsline {subsection}{(iii) MPI\_Scatterv and MPI\_Gatherv briefly explained.}{5}}
\@writefile{toc}{\contentsline {subsection}{(iv) Extension of the SAUCE template with MPI\_Scatterv and MPI\_Gatherv.}{7}}
\newlabel{"Code/sauce.cpp"}{{1}{7}}
\@writefile{lol}{\contentsline {lstlisting}{\numberline {1}Solution from SAUCE}{7}}
\@writefile{toc}{\contentsline {subsection}{(v) Speedup and efficiency.}{9}}
\newlabel{LastPage}{{}{9}}
\xdef\lastpage@lastpage{9}
\gdef\lastpage@lastpageHy{}
